ISO-10303-21;
HEADER;
FILE_DESCRIPTION (( 'STEP AP214' ),
    '1' );
FILE_NAME ('turbineCaseLid.STEP',
    '2020-03-30T19:36:52',
    ( '' ),
    ( '' ),
    'SwSTEP 2.0',
    'SolidWorks 2018',
    '' );
FILE_SCHEMA (( 'AUTOMOTIVE_DESIGN' ));
ENDSEC;

DATA;
#1 = CARTESIAN_POINT ( 'NONE',  ( -12.61978561629998907, 8.733963283336818151, -3.089261946291009601E-15 ) ) ;
#2 = DIRECTION ( 'NONE',  ( -0.0000000000000000000, 1.000000000000000000, -0.0000000000000000000 ) ) ;
#3 = DIRECTION ( 'NONE',  ( -0.0000000000000000000, 1.000000000000000000, -0.0000000000000000000 ) ) ;
#4 = UNCERTAINTY_MEASURE_WITH_UNIT (LENGTH_MEASURE( 1.000000000000000082E-05 ), #477, 'distance_accuracy_value', 'NONE');
#5 = AXIS2_PLACEMENT_3D ( 'NONE', #311, #3, #49 ) ;
#6 = CARTESIAN_POINT ( 'NONE',  ( 10.46415610466648616, 10.20414261458175709, 1.279795462041296354E-15 ) ) ;
#7 = CARTESIAN_POINT ( 'NONE',  ( 0.0000000000000000000, 11.99999999999998934, 0.0000000000000000000 ) ) ;
#8 = ORIENTED_EDGE ( 'NONE', *, *, #225, .T. ) ;
#9 = DIRECTION ( 'NONE',  ( 0.0000000000000000000, 0.0000000000000000000, 1.000000000000000000 ) ) ;
#10 = FACE_OUTER_BOUND ( 'NONE', #404, .T. ) ;
#11 = DIRECTION ( 'NONE',  ( 0.0000000000000000000, 0.0000000000000000000, 1.000000000000000000 ) ) ;
#12 = AXIS2_PLACEMENT_3D ( 'NONE', #302, #118, #502 ) ;
#13 = DIRECTION ( 'NONE',  ( -0.0000000000000000000, 1.000000000000000000, -0.0000000000000000000 ) ) ;
#14 = VECTOR ( 'NONE', #61, 1000.000000000000000 ) ;
#15 = ORIENTED_EDGE ( 'NONE', *, *, #94, .F. ) ;
#16 = CARTESIAN_POINT ( 'NONE',  ( 0.0000000000000000000, 11.49999999999999112, 0.0000000000000000000 ) ) ;
#17 = VERTEX_POINT ( 'NONE', #73 ) ;
#18 = DIRECTION ( 'NONE',  ( 0.0000000000000000000, 0.0000000000000000000, -1.000000000000000000 ) ) ;
#19 = PRODUCT_DEFINITION ( 'UNKNOWN', '', #132, #203 ) ;
#20 = VERTEX_POINT ( 'NONE', #296 ) ;
#21 = LINE ( 'NONE', #382, #232 ) ;
#22 = ORIENTED_EDGE ( 'NONE', *, *, #120, .F. ) ;
#23 = AXIS2_PLACEMENT_3D ( 'NONE', #16, #353, #11 ) ;
#24 = FACE_OUTER_BOUND ( 'NONE', #389, .T. ) ;
#25 = DIRECTION ( 'NONE',  ( 0.0000000000000000000, -1.000000000000000000, 0.0000000000000000000 ) ) ;
#26 = LINE ( 'NONE', #317, #14 ) ;
#27 = EDGE_CURVE ( 'NONE', #438, #75, #495, .T. ) ;
#28 = ORIENTED_EDGE ( 'NONE', *, *, #299, .F. ) ;
#29 = CARTESIAN_POINT ( 'NONE',  ( 9.577226244980966641, 11.02137725819346947, 1.171177880668087897E-15 ) ) ;
#30 = CARTESIAN_POINT ( 'NONE',  ( 33.55037370042460054, 3.653876120482262735, 4.107041710347743557E-15 ) ) ;
#31 = CARTESIAN_POINT ( 'NONE',  ( 9.453881286938550232, 11.14084087367017339, 3.026482805278476688E-15 ) ) ;
#32 = CARTESIAN_POINT ( 'NONE',  ( 0.0000000000000000000, 11.49999999999999112, 9.801738616851267238 ) ) ;
#33 = AXIS2_PLACEMENT_3D ( 'NONE', #113, #253, #376 ) ;
#34 = CARTESIAN_POINT ( 'NONE',  ( 1.086253614819575865E-15, 11.99999999999998934, 0.0000000000000000000 ) ) ;
#35 = CARTESIAN_POINT ( 'NONE',  ( 0.0000000000000000000, 14.99999999999999645, 0.0000000000000000000 ) ) ;
#36 = VERTEX_POINT ( 'NONE', #31 ) ;
#37 = VERTEX_POINT ( 'NONE', #366 ) ;
#38 = DIRECTION ( 'NONE',  ( -0.0000000000000000000, 1.000000000000000000, -0.0000000000000000000 ) ) ;
#39 = APPLICATION_PROTOCOL_DEFINITION ( 'draft international standard', 'automotive_design', 1998, #263 ) ;
#40 = CARTESIAN_POINT ( 'NONE',  ( 0.0000000000000000000, 11.14084087367017339, 0.0000000000000000000 ) ) ;
#41 = CARTESIAN_POINT ( 'NONE',  ( -37.86466226847204553, 3.499999999999999112, -75.72932453694411947 ) ) ;
#42 = DIRECTION ( 'NONE',  ( 1.000000000000000000, 0.0000000000000000000, 0.0000000000000000000 ) ) ;
#43 = CARTESIAN_POINT ( 'NONE',  ( -16.68353604612735452, 6.932174689228295605, -33.36707209225472326 ) ) ;
#44 = SURFACE_STYLE_USAGE ( .BOTH. , #81 ) ;
#45 = AXIS2_PLACEMENT_3D ( 'NONE', #370, #156, #206 ) ;
#46 = ORIENTED_EDGE ( 'NONE', *, *, #453, .F. ) ;
#47 =( NAMED_UNIT ( * ) SI_UNIT ( $, .STERADIAN. ) SOLID_ANGLE_UNIT ( ) );
#48 = ORIENTED_EDGE ( 'NONE', *, *, #446, .T. ) ;
#49 = DIRECTION ( 'NONE',  ( 0.0000000000000000000, 0.0000000000000000000, 1.000000000000000000 ) ) ;
#50 = CARTESIAN_POINT ( 'NONE',  ( 33.55037370042460054, 3.653876120482262735, 4.107041710347744346E-15 ) ) ;
#51 = EDGE_CURVE ( 'NONE', #147, #289, #398, .T. ) ;
#52 = CARTESIAN_POINT ( 'NONE',  ( -21.66415671351422390, 5.445029984783867683, 1.694065894508312752E-18 ) ) ;
#53 = PRODUCT_RELATED_PRODUCT_CATEGORY ( 'part', '', ( #308 ) ) ;
#54 = ORIENTED_EDGE ( 'NONE', *, *, #120, .T. ) ;
#55 = DIRECTION ( 'NONE',  ( 0.0000000000000000000, -1.000000000000000000, 0.0000000000000000000 ) ) ;
#56 = ORIENTED_EDGE ( 'NONE', *, *, #516, .T. ) ;
#57 = AXIS2_PLACEMENT_3D ( 'NONE', #473, #198, #223 ) ;
#58 = DIRECTION ( 'NONE',  ( -0.0000000000000000000, 1.000000000000000000, -0.0000000000000000000 ) ) ;
#59 = ORIENTED_EDGE ( 'NONE', *, *, #363, .T. ) ;
#60 = ORIENTED_EDGE ( 'NONE', *, *, #554, .F. ) ;
#61 = DIRECTION ( 'NONE',  ( -0.0000000000000000000, 1.000000000000000000, -0.0000000000000000000 ) ) ;
#62 = FACE_OUTER_BOUND ( 'NONE', #93, .T. ) ;
#63 = CARTESIAN_POINT ( 'NONE',  ( -9.453881286938550232, 11.14084087367017339, 1.694065894508475108E-18 ) ) ;
#64 = ADVANCED_FACE ( 'NONE', ( #411 ), #465, .T. ) ;
#65 = ADVANCED_FACE ( 'NONE', ( #527 ), #305, .T. ) ;
#66 = DIRECTION ( 'NONE',  ( 0.0000000000000000000, -0.0000000000000000000, -1.000000000000000000 ) ) ;
#67 = ORIENTED_EDGE ( 'NONE', *, *, #554, .T. ) ;
#68 = DIRECTION ( 'NONE',  ( -0.0000000000000000000, 1.000000000000000000, -0.0000000000000000000 ) ) ;
#69 = ORIENTED_EDGE ( 'NONE', *, *, #446, .F. ) ;
#70 = EDGE_CURVE ( 'NONE', #37, #85, #352, .T. ) ;
#71 = CIRCLE ( 'NONE', #498, 39.99999999999999289 ) ;
#72 = COLOUR_RGB ( '',0.7921568627450980005, 0.8196078431372548767, 0.9333333333333333481 ) ;
#73 = CARTESIAN_POINT ( 'NONE',  ( 0.0000000000000000000, 11.14084087367017339, 9.453881286938552009 ) ) ;
#74 = EDGE_CURVE ( 'NONE', #85, #37, #208, .T. ) ;
#75 = VERTEX_POINT ( 'NONE', #364 ) ;
#76 = ORIENTED_EDGE ( 'NONE', *, *, #256, .F. ) ;
#77 = DIRECTION ( 'NONE',  ( -0.0000000000000000000, 1.000000000000000000, -0.0000000000000000000 ) ) ;
#78 = CARTESIAN_POINT ( 'NONE',  ( -9.453881286938550232, 11.14084087367017339, 1.694065894508475108E-18 ) ) ;
#79 = DIRECTION ( 'NONE',  ( 0.0000000000000000000, 0.0000000000000000000, 1.000000000000000000 ) ) ;
#80 = EDGE_CURVE ( 'NONE', #231, #36, #101, .T. ) ;
#81 = SURFACE_SIDE_STYLE ('',( #315 ) ) ;
#82 = VERTEX_POINT ( 'NONE', #413 ) ;
#83 = CARTESIAN_POINT ( 'NONE',  ( 0.0000000000000000000, 3.499999999999999556, 0.0000000000000000000 ) ) ;
#84 = EDGE_CURVE ( 'NONE', #438, #127, #182, .T. ) ;
#85 = VERTEX_POINT ( 'NONE', #244 ) ;
#86 = CARTESIAN_POINT ( 'NONE',  ( 0.0000000000000000000, 0.0000000000000000000, 0.0000000000000000000 ) ) ;
#87 = VECTOR ( 'NONE', #126, 1000.000000000000000 ) ;
#88 = CARTESIAN_POINT ( 'NONE',  ( 0.0000000000000000000, 11.99999999999998934, 9.801738616851267238 ) ) ;
#89 = VERTEX_POINT ( 'NONE', #542 ) ;
#90 = FILL_AREA_STYLE_COLOUR ( '', #219 ) ;
#91 = AXIS2_PLACEMENT_3D ( 'NONE', #454, #246, #369 ) ;
#92 = CARTESIAN_POINT ( 'NONE',  ( -39.99999999999999289, 3.499999999999999112, 1.694065894508069121E-18 ) ) ;
#93 = EDGE_LOOP ( 'NONE', ( #338, #526, #267, #104, #437 ) ) ;
#94 = EDGE_CURVE ( 'NONE', #174, #134, #153, .T. ) ;
#95 = CARTESIAN_POINT ( 'NONE',  ( 0.0000000000000000000, 11.99999999999998934, 0.0000000000000000000 ) ) ;
#96 = EDGE_LOOP ( 'NONE', ( #324, #365, #197, #501 ) ) ;
#97 = FACE_OUTER_BOUND ( 'NONE', #374, .T. ) ;
#98 = CIRCLE ( 'NONE', #523, 46.99999999999999289 ) ;
#99 = AXIS2_PLACEMENT_3D ( 'NONE', #298, #494, #293 ) ;
#100 = CARTESIAN_POINT ( 'NONE',  ( 16.68353604612736163, 6.932174689228296494, 2.041449835840428053E-15 ) ) ;
#101 = B_SPLINE_CURVE_WITH_KNOTS ( 'NONE', 3,
 ( #325, #410, #30, #195, #537, #196, #290, #540, #29, #327 ),
 .UNSPECIFIED., .F., .F.,
 ( 4, 1, 1, 1, 1, 1, 1, 4 ),
 ( -1.570796326794896558, -1.374446785945534488, -1.178097245096172418, -0.9817477042468103487, -0.7853981633974482790, -0.5890486225480862092, -0.3926990816987241395, -0.3592145850058923173 ),
 .UNSPECIFIED. ) ;
#102 = EDGE_CURVE ( 'NONE', #231, #510, #71, .T. ) ;
#103 = ADVANCED_BREP_SHAPE_REPRESENTATION ( 'turbineCaseLid', ( #217, #484 ), #400 ) ;
#104 = ORIENTED_EDGE ( 'NONE', *, *, #285, .T. ) ;
#105 = EDGE_CURVE ( 'NONE', #36, #75, #138, .T. ) ;
#106 = ORIENTED_EDGE ( 'NONE', *, *, #541, .F. ) ;
#107 = CIRCLE ( 'NONE', #536, 9.453881286938550232 ) ;
#108 = ORIENTED_EDGE ( 'NONE', *, *, #444, .T. ) ;
#109 = DIRECTION ( 'NONE',  ( 1.224646799147353454E-16, 0.0000000000000000000, -1.000000000000000000 ) ) ;
#110 = CARTESIAN_POINT ( 'NONE',  ( 0.0000000000000000000, 6.500000000000000888, 46.99999999999999289 ) ) ;
#111 = AXIS2_PLACEMENT_3D ( 'NONE', #288, #242, #492 ) ;
#112 = CARTESIAN_POINT ( 'NONE',  ( 39.99999999999999289, 3.499999999999999112, 4.896893130694903636E-15 ) ) ;
#113 = CARTESIAN_POINT ( 'NONE',  ( 0.0000000000000000000, 7.999999999999986677, 0.0000000000000000000 ) ) ;
#114 = CARTESIAN_POINT ( 'NONE',  ( 40.00000000000000000, 3.499999999999999112, -79.99999999999997158 ) ) ;
#115 = CLOSED_SHELL ( 'NONE', ( #146, #191, #64, #186, #486, #116, #441, #489, #255, #190, #230, #403, #65, #279, #227 ) ) ;
#116 = ADVANCED_FACE ( 'NONE', ( #24 ), #277, .T. ) ;
#117 = DIRECTION ( 'NONE',  ( -0.0000000000000000000, 1.000000000000000000, -0.0000000000000000000 ) ) ;
#118 = DIRECTION ( 'NONE',  ( -0.0000000000000000000, 1.000000000000000000, -0.0000000000000000000 ) ) ;
#119 = ORIENTED_EDGE ( 'NONE', *, *, #363, .F. ) ;
#120 = EDGE_CURVE ( 'NONE', #510, #231, #340, .T. ) ;
#121 =( NAMED_UNIT ( * ) PLANE_ANGLE_UNIT ( ) SI_UNIT ( $, .RADIAN. ) );
#122 = DIRECTION ( 'NONE',  ( -0.0000000000000000000, 1.000000000000000000, -0.0000000000000000000 ) ) ;
#123 = STYLED_ITEM ( 'NONE', ( #283 ), #217 ) ;
#124 = FACE_OUTER_BOUND ( 'NONE', #176, .T. ) ;
#125 = DIRECTION ( 'NONE',  ( 0.0000000000000000000, -1.000000000000000000, 0.0000000000000000000 ) ) ;
#126 = DIRECTION ( 'NONE',  ( -0.0000000000000000000, 1.000000000000000000, -0.0000000000000000000 ) ) ;
#127 = VERTEX_POINT ( 'NONE', #202 ) ;
#128 = ORIENTED_EDGE ( 'NONE', *, *, #359, .T. ) ;
#129 =( NAMED_UNIT ( * ) SI_UNIT ( $, .STERADIAN. ) SOLID_ANGLE_UNIT ( ) );
#130 = DIRECTION ( 'NONE',  ( 0.0000000000000000000, 0.0000000000000000000, -1.000000000000000000 ) ) ;
#131 = CARTESIAN_POINT ( 'NONE',  ( 39.99999999999999289, 3.499999999999999556, 4.896893130694903636E-15 ) ) ;
#132 = PRODUCT_DEFINITION_FORMATION_WITH_SPECIFIED_SOURCE ( 'ANY', '', #308, .NOT_KNOWN. ) ;
#133 = CARTESIAN_POINT ( 'NONE',  ( -10.46415610466648616, 10.20414261458175709, -2.561284989977101308E-15 ) ) ;
#134 = VERTEX_POINT ( 'NONE', #553 ) ;
#135 = FACE_OUTER_BOUND ( 'NONE', #96, .T. ) ;
#136 = EDGE_LOOP ( 'NONE', ( #239, #309, #269, #15 ) ) ;
#137 = CARTESIAN_POINT ( 'NONE',  ( 9.577226244979987868, 11.02137725819437009, 19.15445248995997574 ) ) ;
#138 = CIRCLE ( 'NONE', #192, 9.453881286938550232 ) ;
#139 = EDGE_CURVE ( 'NONE', #89, #17, #107, .T. ) ;
#140 = DIRECTION ( 'NONE',  ( 0.0000000000000000000, 0.0000000000000000000, -1.000000000000000000 ) ) ;
#141 = SHAPE_DEFINITION_REPRESENTATION ( #522, #103 ) ;
#142 = CARTESIAN_POINT ( 'NONE',  ( -10.46415610466648616, 10.20414261458175709, 1.694065894508461626E-18 ) ) ;
#143 = STYLED_ITEM ( 'NONE', ( #361 ), #103 ) ;
#144 = ORIENTED_EDGE ( 'NONE', *, *, #481, .T. ) ;
#145 = CARTESIAN_POINT ( 'NONE',  ( -9.577226244979989644, 11.02137725819437009, 19.15445248995997574 ) ) ;
#146 = ADVANCED_FACE ( 'NONE', ( #10 ), #448, .T. ) ;
#147 = VERTEX_POINT ( 'NONE', #110 ) ;
#148 = SURFACE_STYLE_FILL_AREA ( #216 ) ;
#149 = CARTESIAN_POINT ( 'NONE',  ( 0.0000000000000000000, 3.499999999999999556, 0.0000000000000000000 ) ) ;
#150 = CARTESIAN_POINT ( 'NONE',  ( 0.0000000000000000000, 6.500000000000000888, 0.0000000000000000000 ) ) ;
#151 = EDGE_LOOP ( 'NONE', ( #218, #48, #59, #76 ) ) ;
#152 = MECHANICAL_DESIGN_GEOMETRIC_PRESENTATION_REPRESENTATION (  '', ( #123 ), #210 ) ;
#153 = CIRCLE ( 'NONE', #33, 46.99999999999999289 ) ;
#154 = AXIS2_PLACEMENT_3D ( 'NONE', #7, #125, #130 ) ;
#155 = FACE_BOUND ( 'NONE', #193, .T. ) ;
#156 = DIRECTION ( 'NONE',  ( 0.0000000000000000000, -1.000000000000000000, 0.0000000000000000000 ) ) ;
#157 = ORIENTED_EDGE ( 'NONE', *, *, #80, .F. ) ;
#158 = CARTESIAN_POINT ( 'NONE',  ( 0.0000000000000000000, 11.49999999999999112, 0.0000000000000000000 ) ) ;
#159 = CARTESIAN_POINT ( 'NONE',  ( -39.99999999999997158, 3.499999999999999112, -79.99999999999998579 ) ) ;
#160 = FILL_AREA_STYLE_COLOUR ( '', #72 ) ;
#161 = DIRECTION ( 'NONE',  ( 0.0000000000000000000, 0.0000000000000000000, 1.000000000000000000 ) ) ;
#162 = DIRECTION ( 'NONE',  ( -0.0000000000000000000, 1.000000000000000000, -0.0000000000000000000 ) ) ;
#163 = DIRECTION ( 'NONE',  ( 0.0000000000000000000, 0.0000000000000000000, 1.000000000000000000 ) ) ;
#164 = EDGE_CURVE ( 'NONE', #508, #20, #512, .T. ) ;
#165 = CARTESIAN_POINT ( 'NONE',  ( 21.66415671351422390, 5.445029984783867683, 2.651399951648675176E-15 ) ) ;
#166 = VERTEX_POINT ( 'NONE', #425 ) ;
#167 = APPLICATION_PROTOCOL_DEFINITION ( 'draft international standard', 'automotive_design', 1998, #464 ) ;
#168 = ORIENTED_EDGE ( 'NONE', *, *, #84, .T. ) ;
#169 = CARTESIAN_POINT ( 'NONE',  ( -37.86466226847205974, 3.499999999999999112, 75.72932453694411947 ) ) ;
#170 = DIRECTION ( 'NONE',  ( 0.0000000000000000000, 0.0000000000000000000, 1.000000000000000000 ) ) ;
#171 = CARTESIAN_POINT ( 'NONE',  ( -33.55037370042460054, 3.653876120482262291, 67.10074740084918687 ) ) ;
#172 = CARTESIAN_POINT ( 'NONE',  ( 0.0000000000000000000, 11.99999999999998934, 0.0000000000000000000 ) ) ;
#173 = PLANE ( 'NONE',  #57 ) ;
#174 = VERTEX_POINT ( 'NONE', #249 ) ;
#175 = CARTESIAN_POINT ( 'NONE',  ( 21.66415671351421679, 5.445029984783868571, 43.32831342702844779 ) ) ;
#176 = EDGE_LOOP ( 'NONE', ( #157, #22, #534, #297, #549 ) ) ;
#177 = AXIS2_PLACEMENT_3D ( 'NONE', #544, #372, #331 ) ;
#178 = CARTESIAN_POINT ( 'NONE',  ( -12.61978561629998374, 8.733963283336818151, -25.23957123259997815 ) ) ;
#179 = CIRCLE ( 'NONE', #475, 0.5000000000000004441 ) ;
#180 = ORIENTED_EDGE ( 'NONE', *, *, #401, .F. ) ;
#181 = CARTESIAN_POINT ( 'NONE',  ( -33.55037370042460054, 3.653876120482262735, 1.694065894508600678E-18 ) ) ;
#182 = CIRCLE ( 'NONE', #312, 9.301738616851267238 ) ;
#183 = AXIS2_PLACEMENT_3D ( 'NONE', #379, #38, #161 ) ;
#184 = CARTESIAN_POINT ( 'NONE',  ( -10.46415610466648616, 10.20414261458175709, 20.92831220933296876 ) ) ;
#185 = CARTESIAN_POINT ( 'NONE',  ( -16.68353604612736163, 6.932174689228296494, 1.694065894508379004E-18 ) ) ;
#186 = ADVANCED_FACE ( 'NONE', ( #97 ), #314, .T. ) ;
#187 = CIRCLE ( 'NONE', #329, 44.99999999999999289 ) ;
#188 = EDGE_CURVE ( 'NONE', #220, #438, #222, .T. ) ;
#189 = ORIENTED_EDGE ( 'NONE', *, *, #256, .T. ) ;
#190 = ADVANCED_FACE ( 'NONE', ( #426, #291 ), #418, .F. ) ;
#191 = ADVANCED_FACE ( 'NONE', ( #62 ), #320, .T. ) ;
#192 = AXIS2_PLACEMENT_3D ( 'NONE', #40, #336, #79 ) ;
#193 = EDGE_LOOP ( 'NONE', ( #54, #469 ) ) ;
#194 = FACE_OUTER_BOUND ( 'NONE', #445, .T. ) ;
#195 = CARTESIAN_POINT ( 'NONE',  ( 27.36524476696547481, 4.337076222411565318, 3.349581875280303921E-15 ) ) ;
#196 = CARTESIAN_POINT ( 'NONE',  ( 16.68353604612736163, 6.932174689228296494, 2.041449835840427659E-15 ) ) ;
#197 = ORIENTED_EDGE ( 'NONE', *, *, #225, .F. ) ;
#198 = DIRECTION ( 'NONE',  ( -0.0000000000000000000, 1.000000000000000000, 0.0000000000000000000 ) ) ;
#199 = DIRECTION ( 'NONE',  ( 0.0000000000000000000, 0.0000000000000000000, 1.000000000000000000 ) ) ;
#200 = AXIS2_PLACEMENT_3D ( 'NONE', #407, #25, #66 ) ;
#201 = CARTESIAN_POINT ( 'NONE',  ( 0.0000000000000000000, 11.14084087367017339, 0.0000000000000000000 ) ) ;
#202 = CARTESIAN_POINT ( 'NONE',  ( 0.0000000000000000000, 11.49999999999999112, 9.301738616851267238 ) ) ;
#203 = PRODUCT_DEFINITION_CONTEXT ( 'detailed design', #263, 'design' ) ;
#204 = DIRECTION ( 'NONE',  ( 0.0000000000000000000, 0.0000000000000000000, 1.000000000000000000 ) ) ;
#205 = ORIENTED_EDGE ( 'NONE', *, *, #401, .T. ) ;
#206 = DIRECTION ( 'NONE',  ( 0.0000000000000000000, 0.0000000000000000000, -1.000000000000000000 ) ) ;
#207 = CARTESIAN_POINT ( 'NONE',  ( 0.0000000000000000000, 14.99999999999999645, 44.99999999999999289 ) ) ;
#208 = CIRCLE ( 'NONE', #388, 44.99999999999999289 ) ;
#209 = CARTESIAN_POINT ( 'NONE',  ( -21.66415671351422390, 5.445029984783867683, -5.304493969191858952E-15 ) ) ;
#210 =( GEOMETRIC_REPRESENTATION_CONTEXT ( 3 ) GLOBAL_UNCERTAINTY_ASSIGNED_CONTEXT ( ( #4 ) ) GLOBAL_UNIT_ASSIGNED_CONTEXT ( ( #477, #520, #129 ) ) REPRESENTATION_CONTEXT ( 'NONE', 'WORKASPACE' ) );
#211 = CARTESIAN_POINT ( 'NONE',  ( 37.86466226847205974, 3.499999999999999112, 75.72932453694411947 ) ) ;
#212 = DIRECTION ( 'NONE',  ( 0.0000000000000000000, 0.0000000000000000000, 1.000000000000000000 ) ) ;
#213 = SURFACE_SIDE_STYLE ('',( #148 ) ) ;
#214 = AXIS2_PLACEMENT_3D ( 'NONE', #436, #319, #9 ) ;
#215 = CARTESIAN_POINT ( 'NONE',  ( 27.36524476696546415, 4.337076222411566206, 54.73048953393092830 ) ) ;
#216 = FILL_AREA_STYLE ('',( #90 ) ) ;
#217 = MANIFOLD_SOLID_BREP ( 'Sfazowanie2', #115 ) ;
#218 = ORIENTED_EDGE ( 'NONE', *, *, #51, .T. ) ;
#219 = COLOUR_RGB ( '',0.7921568627450980005, 0.8196078431372548767, 0.9333333333333333481 ) ;
#220 = VERTEX_POINT ( 'NONE', #373 ) ;
#221 = AXIS2_PLACEMENT_3D ( 'NONE', #150, #450, #330 ) ;
#222 = CIRCLE ( 'NONE', #377, 0.5000000000000004441 ) ;
#223 = DIRECTION ( 'NONE',  ( 0.0000000000000000000, 0.0000000000000000000, 1.000000000000000000 ) ) ;
#224 = CARTESIAN_POINT ( 'NONE',  ( -21.66415671351422390, 5.445029984783867683, 1.694065894508600678E-18 ) ) ;
#225 = EDGE_CURVE ( 'NONE', #220, #250, #447, .T. ) ;
#226 = CARTESIAN_POINT ( 'NONE',  ( 12.61978561629998907, 8.733963283336818151, 1.543783940198250697E-15 ) ) ;
#227 = ADVANCED_FACE ( 'NONE', ( #252 ), #274, .T. ) ;
#228 = ORIENTED_EDGE ( 'NONE', *, *, #509, .T. ) ;
#229 = CARTESIAN_POINT ( 'NONE',  ( 10.46415610466648438, 10.20414261458175709, 20.92831220933296876 ) ) ;
#230 = ADVANCED_FACE ( 'NONE', ( #408 ), #355, .T. ) ;
#231 = VERTEX_POINT ( 'NONE', #131 ) ;
#232 = VECTOR ( 'NONE', #380, 999.9999999999998863 ) ;
#233 = CARTESIAN_POINT ( 'NONE',  ( -9.577226244980966641, 11.02137725819346947, 1.694065894508600678E-18 ) ) ;
#234 = CARTESIAN_POINT ( 'NONE',  ( 1.139134442363223374E-15, 11.49999999999999112, -9.301738616851267238 ) ) ;
#235 = DIRECTION ( 'NONE',  ( -0.0000000000000000000, 1.000000000000000000, -0.0000000000000000000 ) ) ;
#236 = DIRECTION ( 'NONE',  ( 0.0000000000000000000, 0.0000000000000000000, 1.000000000000000000 ) ) ;
#237 = VECTOR ( 'NONE', #292, 1000.000000000000000 ) ;
#238 = AXIS2_PLACEMENT_3D ( 'NONE', #172, #55, #518 ) ;
#239 = ORIENTED_EDGE ( 'NONE', *, *, #359, .F. ) ;
#240 = DIRECTION ( 'NONE',  ( 1.000000000000000000, 0.0000000000000000000, 1.224646799147353207E-16 ) ) ;
#241 = EDGE_LOOP ( 'NONE', ( #409, #56, #460, #375, #405 ) ) ;
#242 = DIRECTION ( 'NONE',  ( -0.0000000000000000000, 1.000000000000000000, -0.0000000000000000000 ) ) ;
#243 = AXIS2_PLACEMENT_3D ( 'NONE', #391, #479, #273 ) ;
#244 = CARTESIAN_POINT ( 'NONE',  ( 5.510910596163087978E-15, 6.500000000000000888, -44.99999999999999289 ) ) ;
#245 = VECTOR ( 'NONE', #2, 1000.000000000000000 ) ;
#246 = DIRECTION ( 'NONE',  ( 0.0000000000000000000, -1.000000000000000000, 0.0000000000000000000 ) ) ;
#247 = DIRECTION ( 'NONE',  ( 1.224646799147353454E-16, 0.0000000000000000000, -1.000000000000000000 ) ) ;
#248 = DIRECTION ( 'NONE',  ( 0.0000000000000000000, 0.0000000000000000000, 1.000000000000000000 ) ) ;
#249 = CARTESIAN_POINT ( 'NONE',  ( 0.0000000000000000000, 7.999999999999986677, 46.99999999999999289 ) ) ;
#250 = VERTEX_POINT ( 'NONE', #88 ) ;
#251 = CARTESIAN_POINT ( 'NONE',  ( 0.0000000000000000000, 11.49999999999999112, 0.0000000000000000000 ) ) ;
#252 = FACE_OUTER_BOUND ( 'NONE', #136, .T. ) ;
#253 = DIRECTION ( 'NONE',  ( 0.0000000000000000000, -1.000000000000000000, 0.0000000000000000000 ) ) ;
#254 = CARTESIAN_POINT ( 'NONE',  ( -27.36524476696546060, 4.337076222411566206, -54.73048953393094251 ) ) ;
#255 = ADVANCED_FACE ( 'NONE', ( #124 ), #478, .T. ) ;
#256 = EDGE_CURVE ( 'NONE', #147, #174, #26, .T. ) ;
#257 = CARTESIAN_POINT ( 'NONE',  ( 16.68353604612736163, 6.932174689228296494, 2.041449835840427659E-15 ) ) ;
#258 = DIRECTION ( 'NONE',  ( 1.000000000000000000, 0.0000000000000000000, 1.224646799147353207E-16 ) ) ;
#259 = ORIENTED_EDGE ( 'NONE', *, *, #164, .F. ) ;
#260 = MECHANICAL_DESIGN_GEOMETRIC_PRESENTATION_REPRESENTATION (  '', ( #143 ), #543 ) ;
#261 = ORIENTED_EDGE ( 'NONE', *, *, #528, .F. ) ;
#262 = CARTESIAN_POINT ( 'NONE',  ( 9.577226244979991421, 11.02137725819437009, -19.15445248995997574 ) ) ;
#263 = APPLICATION_CONTEXT ( 'automotive_design' ) ;
#264 = CARTESIAN_POINT ( 'NONE',  ( 9.453881286938550232, 11.14084087367017339, 1.156072479862327024E-15 ) ) ;
#265 = CARTESIAN_POINT ( 'NONE',  ( 9.577226244979989644, 11.02137725819437009, 1.171177880667968187E-15 ) ) ;
#266 = CARTESIAN_POINT ( 'NONE',  ( -9.577226244979989644, 11.02137725819437009, -2.344049827230444975E-15 ) ) ;
#267 = ORIENTED_EDGE ( 'NONE', *, *, #105, .T. ) ;
#268 = AXIS2_PLACEMENT_3D ( 'NONE', #95, #13, #18 ) ;
#269 = ORIENTED_EDGE ( 'NONE', *, *, #541, .T. ) ;
#270 = CARTESIAN_POINT ( 'NONE',  ( -9.453881286938550232, 11.14084087367017339, -2.313839025619162649E-15 ) ) ;
#271 = CARTESIAN_POINT ( 'NONE',  ( -12.61978561629998907, 8.733963283336818151, 1.694065894508432930E-18 ) ) ;
#272 = AXIS2_PLACEMENT_3D ( 'NONE', #251, #428, #170 ) ;
#273 = DIRECTION ( 'NONE',  ( 0.0000000000000000000, 0.0000000000000000000, -1.000000000000000000 ) ) ;
#274 = CONICAL_SURFACE ( 'NONE', #154, 42.99999999999998579, 0.7853981633974491672 ) ;
#275 = ORIENTED_EDGE ( 'NONE', *, *, #509, .F. ) ;
#276 = CARTESIAN_POINT ( 'NONE',  ( 16.68353604612735452, 6.932174689228295605, 33.36707209225470905 ) ) ;
#277 = CYLINDRICAL_SURFACE ( 'NONE', #414, 44.99999999999999289 ) ;
#278 = DIRECTION ( 'NONE',  ( 8.659560562354941486E-17, -0.7071067811865469066, 0.7071067811865482389 ) ) ;
#279 = ADVANCED_FACE ( 'NONE', ( #491 ), #530, .T. ) ;
#280 = CARTESIAN_POINT ( 'NONE',  ( -9.453881286938550232, 11.14084087367017339, 18.90776257387709691 ) ) ;
#281 = AXIS2_PLACEMENT_3D ( 'NONE', #440, #58, #140 ) ;
#282 = ORIENTED_EDGE ( 'NONE', *, *, #51, .F. ) ;
#283 = PRESENTATION_STYLE_ASSIGNMENT (( #521 ) ) ;
#284 = PLANE ( 'NONE',  #200 ) ;
#285 = EDGE_CURVE ( 'NONE', #75, #89, #429, .T. ) ;
#286 = CIRCLE ( 'NONE', #281, 42.99999999999998579 ) ;
#287 = CYLINDRICAL_SURFACE ( 'NONE', #111, 46.99999999999999289 ) ;
#288 = CARTESIAN_POINT ( 'NONE',  ( 0.0000000000000000000, 14.99999999999999645, 0.0000000000000000000 ) ) ;
#289 = VERTEX_POINT ( 'NONE', #397 ) ;
#290 = CARTESIAN_POINT ( 'NONE',  ( 12.61978561629998907, 8.733963283336818151, 1.543783940198250500E-15 ) ) ;
#291 = FACE_BOUND ( 'NONE', #483, .T. ) ;
#292 = DIRECTION ( 'NONE',  ( -0.0000000000000000000, 1.000000000000000000, -0.0000000000000000000 ) ) ;
#293 = DIRECTION ( 'NONE',  ( 0.0000000000000000000, 0.0000000000000000000, 1.000000000000000000 ) ) ;
#294 = CARTESIAN_POINT ( 'NONE',  ( 0.0000000000000000000, 11.49999999999999112, 9.801738616851267238 ) ) ;
#295 = DIRECTION ( 'NONE',  ( 0.0000000000000000000, 0.0000000000000000000, 1.000000000000000000 ) ) ;
#296 = CARTESIAN_POINT ( 'NONE',  ( 5.510910596163087978E-15, 3.499999999999999556, -44.99999999999999289 ) ) ;
#297 = ORIENTED_EDGE ( 'NONE', *, *, #139, .T. ) ;
#298 = CARTESIAN_POINT ( 'NONE',  ( 0.0000000000000000000, 6.500000000000000888, 0.0000000000000000000 ) ) ;
#299 = EDGE_CURVE ( 'NONE', #82, #166, #539, .T. ) ;
#300 = CARTESIAN_POINT ( 'NONE',  ( 27.36524476696547481, 4.337076222411565318, 3.349581875280303921E-15 ) ) ;
#301 = DIRECTION ( 'NONE',  ( 0.0000000000000000000, 0.0000000000000000000, 1.000000000000000000 ) ) ;
#302 = CARTESIAN_POINT ( 'NONE',  ( 0.0000000000000000000, 11.49999999999999112, 0.0000000000000000000 ) ) ;
#303 = FACE_OUTER_BOUND ( 'NONE', #151, .T. ) ;
#304 = CARTESIAN_POINT ( 'NONE',  ( 16.68353604612736518, 6.932174689228295605, -33.36707209225470905 ) ) ;
#305 = CYLINDRICAL_SURFACE ( 'NONE', #449, 44.99999999999999289 ) ;
#306 = LINE ( 'NONE', #392, #504 ) ;
#307 = CARTESIAN_POINT ( 'NONE',  ( -9.577226244979984315, 11.02137725819437009, -19.15445248995997929 ) ) ;
#308 = PRODUCT ( 'turbineCaseLid', 'turbineCaseLid', '', ( #422 ) ) ;
#309 = ORIENTED_EDGE ( 'NONE', *, *, #367, .F. ) ;
#310 = CARTESIAN_POINT ( 'NONE',  ( 27.36524476696547481, 4.337076222411565318, 3.349581875280304315E-15 ) ) ;
#311 = CARTESIAN_POINT ( 'NONE',  ( 0.0000000000000000000, 14.99999999999999645, 0.0000000000000000000 ) ) ;
#312 = AXIS2_PLACEMENT_3D ( 'NONE', #417, #419, #163 ) ;
#313 = CARTESIAN_POINT ( 'NONE',  ( -39.99999999999999289, 3.499999999999999556, 1.694065894508600678E-18 ) ) ;
#314 = CONICAL_SURFACE ( 'NONE', #45, 42.99999999999998579, 0.7853981633974491672 ) ;
#315 = SURFACE_STYLE_FILL_AREA ( #386 ) ;
#316 = B_SPLINE_CURVE_WITH_KNOTS ( 'NONE', 3,
 ( #313, #439, #181, #482, #224, #399, #487, #362, #233, #78 ),
 .UNSPECIFIED., .F., .F.,
 ( 4, 1, 1, 1, 1, 1, 1, 4 ),
 ( -1.570796326794896558, -1.374446785945534488, -1.178097245096172418, -0.9817477042468103487, -0.7853981633974482790, -0.5890486225480862092, -0.3926990816987241395, -0.3592145850058923173 ),
 .UNSPECIFIED. ) ;
#317 = CARTESIAN_POINT ( 'NONE',  ( 0.0000000000000000000, 14.99999999999999645, 46.99999999999999289 ) ) ;
#318 = CIRCLE ( 'NONE', #243, 46.99999999999999289 ) ;
#319 = DIRECTION ( 'NONE',  ( -0.0000000000000000000, 1.000000000000000000, -0.0000000000000000000 ) ) ;
#320 =( BOUNDED_SURFACE ( )  B_SPLINE_SURFACE ( 3, 3, ( 
 ( #112, #114, #159, #458 ),
 ( #468, #511, #41, #420 ),
 ( #548, #545, #334, #552 ),
 ( #300, #463, #254, #339 ),
 ( #165, #466, #505, #209 ),
 ( #257, #304, #43, #342 ),
 ( #472, #434, #178, #1 ),
 ( #6, #390, #515, #133 ),
 ( #265, #262, #307, #266 ),
 ( #264, #513, #383, #270 ) ),
 .UNSPECIFIED., .F., .F., .F. ) 
 B_SPLINE_SURFACE_WITH_KNOTS ( ( 4, 1, 1, 1, 1, 1, 1, 4 ),
 ( 4, 4 ),
 ( -1.570796326794896558, -1.374446785945534488, -1.178097245096172418, -0.9817477042468103487, -0.7853981633974482790, -0.5890486225480862092, -0.3926990816987241395, -0.3592145850057656964 ),
 ( 0.0000000000000000000, 1.000000000000000000 ),
 .UNSPECIFIED. ) 
 GEOMETRIC_REPRESENTATION_ITEM ( )  RATIONAL_B_SPLINE_SURFACE ( (
 ( 1.000000000000000000, 0.3333333333333334259, 0.3333333333333334259, 1.000000000000000000),
 ( 1.000000000000000000, 0.3333333333333334259, 0.3333333333333334259, 1.000000000000000000),
 ( 1.000000000000000000, 0.3333333333333334259, 0.3333333333333334259, 1.000000000000000000),
 ( 1.000000000000000000, 0.3333333333333334259, 0.3333333333333334259, 1.000000000000000000),
 ( 1.000000000000000000, 0.3333333333333334259, 0.3333333333333334259, 1.000000000000000000),
 ( 1.000000000000000000, 0.3333333333333334259, 0.3333333333333334259, 1.000000000000000000),
 ( 1.000000000000000000, 0.3333333333333334259, 0.3333333333333334259, 1.000000000000000000),
 ( 1.000000000000000000, 0.3333333333333334259, 0.3333333333333334259, 1.000000000000000000),
 ( 1.000000000000000000, 0.3333333333333334259, 0.3333333333333334259, 1.000000000000000000),
 ( 1.000000000000000000, 0.3333333333333334259, 0.3333333333333334259, 1.000000000000000000) ) ) 
 REPRESENTATION_ITEM ( '' )  SURFACE ( )  );
#321 = AXIS2_PLACEMENT_3D ( 'NONE', #32, #497, #349 ) ;
#322 = ORIENTED_EDGE ( 'NONE', *, *, #70, .T. ) ;
#323 = ORIENTED_EDGE ( 'NONE', *, *, #188, .F. ) ;
#324 = ORIENTED_EDGE ( 'NONE', *, *, #516, .F. ) ;
#325 = CARTESIAN_POINT ( 'NONE',  ( 39.99999999999999289, 3.499999999999999556, 4.896893130694903636E-15 ) ) ;
#326 = CARTESIAN_POINT ( 'NONE',  ( 5.755839955992559063E-15, 14.99999999999999645, -46.99999999999999289 ) ) ;
#327 = CARTESIAN_POINT ( 'NONE',  ( 9.453881286938550232, 11.14084087367017339, 3.026482805278476688E-15 ) ) ;
#328 = DIRECTION ( 'NONE',  ( 0.0000000000000000000, 0.0000000000000000000, 1.000000000000000000 ) ) ;
#329 = AXIS2_PLACEMENT_3D ( 'NONE', #149, #490, #236 ) ;
#330 = DIRECTION ( 'NONE',  ( 0.0000000000000000000, 0.0000000000000000000, 1.000000000000000000 ) ) ;
#331 = DIRECTION ( 'NONE',  ( 0.0000000000000000000, 0.0000000000000000000, 1.000000000000000000 ) ) ;
#332 = DIRECTION ( 'NONE',  ( 0.0000000000000000000, -1.000000000000000000, 0.0000000000000000000 ) ) ;
#333 = DIRECTION ( 'NONE',  ( 0.0000000000000000000, 0.0000000000000000000, 1.000000000000000000 ) ) ;
#334 = CARTESIAN_POINT ( 'NONE',  ( -33.55037370042458633, 3.653876120482262291, -67.10074740084920109 ) ) ;
#335 = FACE_OUTER_BOUND ( 'NONE', #357, .T. ) ;
#336 = DIRECTION ( 'NONE',  ( -0.0000000000000000000, 1.000000000000000000, -0.0000000000000000000 ) ) ;
#337 = ORIENTED_EDGE ( 'NONE', *, *, #285, .F. ) ;
#338 = ORIENTED_EDGE ( 'NONE', *, *, #102, .F. ) ;
#339 = CARTESIAN_POINT ( 'NONE',  ( -27.36524476696547481, 4.337076222411565318, -6.700857816455116442E-15 ) ) ;
#340 = CIRCLE ( 'NONE', #341, 39.99999999999999289 ) ;
#341 = AXIS2_PLACEMENT_3D ( 'NONE', #83, #343, #204 ) ;
#342 = CARTESIAN_POINT ( 'NONE',  ( -16.68353604612736163, 6.932174689228296494, -4.084593737575363918E-15 ) ) ;
#343 = DIRECTION ( 'NONE',  ( -0.0000000000000000000, 1.000000000000000000, -0.0000000000000000000 ) ) ;
#344 = CARTESIAN_POINT ( 'NONE',  ( 0.0000000000000000000, 6.500000000000000888, 0.0000000000000000000 ) ) ;
#345 = CARTESIAN_POINT ( 'NONE',  ( -37.86466226847206684, 3.499999999999999112, 1.694065894508097625E-18 ) ) ;
#346 = ORIENTED_EDGE ( 'NONE', *, *, #74, .F. ) ;
#347 = CARTESIAN_POINT ( 'NONE',  ( -27.36524476696547481, 4.337076222411565318, 1.694065894508236870E-18 ) ) ;
#348 = CARTESIAN_POINT ( 'NONE',  ( -21.66415671351422390, 5.445029984783868571, 43.32831342702844779 ) ) ;
#349 = DIRECTION ( 'NONE',  ( 0.0000000000000000000, 0.0000000000000000000, 1.000000000000000000 ) ) ;
#350 = EDGE_LOOP ( 'NONE', ( #532, #323, #46, #108 ) ) ;
#351 = CIRCLE ( 'NONE', #321, 0.5000000000000004441 ) ;
#352 = CIRCLE ( 'NONE', #99, 44.99999999999999289 ) ;
#353 = DIRECTION ( 'NONE',  ( -0.0000000000000000000, 1.000000000000000000, -0.0000000000000000000 ) ) ;
#354 = CARTESIAN_POINT ( 'NONE',  ( 9.453881286938550232, 11.14084087367017339, 1.156072479862327222E-15 ) ) ;
#355 = CYLINDRICAL_SURFACE ( 'NONE', #5, 46.99999999999999289 ) ;
#356 = CARTESIAN_POINT ( 'NONE',  ( 9.577226244979989644, 11.02137725819437009, 1.171177880667968582E-15 ) ) ;
#357 = EDGE_LOOP ( 'NONE', ( #282, #275 ) ) ;
#358 = EDGE_LOOP ( 'NONE', ( #322, #396 ) ) ;
#359 = EDGE_CURVE ( 'NONE', #82, #174, #306, .T. ) ;
#360 = EDGE_LOOP ( 'NONE', ( #261, #205, #67, #346 ) ) ;
#361 = PRESENTATION_STYLE_ASSIGNMENT (( #44 ) ) ;
#362 = CARTESIAN_POINT ( 'NONE',  ( -10.46415610466712742, 10.20414261458132010, 1.694065894508600678E-18 ) ) ;
#363 = EDGE_CURVE ( 'NONE', #134, #174, #318, .T. ) ;
#364 = CARTESIAN_POINT ( 'NONE',  ( 1.157766545756836019E-15, 11.14084087367017339, -9.453881286938552009 ) ) ;
#365 = ORIENTED_EDGE ( 'NONE', *, *, #444, .F. ) ;
#366 = CARTESIAN_POINT ( 'NONE',  ( 0.0000000000000000000, 6.500000000000000888, 44.99999999999999289 ) ) ;
#367 = EDGE_CURVE ( 'NONE', #166, #82, #286, .T. ) ;
#368 = DIRECTION ( 'NONE',  ( -1.000000000000000000, 0.0000000000000000000, 0.0000000000000000000 ) ) ;
#369 = DIRECTION ( 'NONE',  ( 0.0000000000000000000, 0.0000000000000000000, -1.000000000000000000 ) ) ;
#370 = CARTESIAN_POINT ( 'NONE',  ( 0.0000000000000000000, 11.99999999999998934, 0.0000000000000000000 ) ) ;
#371 = CARTESIAN_POINT ( 'NONE',  ( 0.0000000000000000000, 11.49999999999999112, 0.0000000000000000000 ) ) ;
#372 = DIRECTION ( 'NONE',  ( -0.0000000000000000000, 1.000000000000000000, -0.0000000000000000000 ) ) ;
#373 = CARTESIAN_POINT ( 'NONE',  ( 1.200366782320590948E-15, 11.99999999999998934, -9.801738616851267238 ) ) ;
#374 = EDGE_LOOP ( 'NONE', ( #28, #128, #119, #106 ) ) ;
#375 = ORIENTED_EDGE ( 'NONE', *, *, #105, .F. ) ;
#376 = DIRECTION ( 'NONE',  ( 0.0000000000000000000, 0.0000000000000000000, -1.000000000000000000 ) ) ;
#377 = AXIS2_PLACEMENT_3D ( 'NONE', #499, #258, #247 ) ;
#378 = UNCERTAINTY_MEASURE_WITH_UNIT (LENGTH_MEASURE( 1.000000000000000082E-05 ), #459, 'distance_accuracy_value', 'NONE');
#379 = CARTESIAN_POINT ( 'NONE',  ( 0.0000000000000000000, 3.499999999999999556, 0.0000000000000000000 ) ) ;
#380 = DIRECTION ( 'NONE',  ( 0.0000000000000000000, -0.7071067811865469066, -0.7071067811865482389 ) ) ;
#381 = CARTESIAN_POINT ( 'NONE',  ( 0.0000000000000000000, 3.499999999999999556, 0.0000000000000000000 ) ) ;
#382 = CARTESIAN_POINT ( 'NONE',  ( 0.0000000000000000000, 11.99999999999998934, -42.99999999999998579 ) ) ;
#383 = CARTESIAN_POINT ( 'NONE',  ( -9.453881286938544903, 11.14084087367017339, -18.90776257387710046 ) ) ;
#384 = ORIENTED_EDGE ( 'NONE', *, *, #367, .T. ) ;
#385 = CARTESIAN_POINT ( 'NONE',  ( 37.86466226847206684, 3.499999999999999112, 4.635389678893479629E-15 ) ) ;
#386 = FILL_AREA_STYLE ('',( #160 ) ) ;
#387 = CARTESIAN_POINT ( 'NONE',  ( 39.99999999999998579, 3.499999999999999112, 79.99999999999997158 ) ) ;
#388 = AXIS2_PLACEMENT_3D ( 'NONE', #496, #77, #199 ) ;
#389 = EDGE_LOOP ( 'NONE', ( #500, #493, #421, #60 ) ) ;
#390 = CARTESIAN_POINT ( 'NONE',  ( 10.46415610466648793, 10.20414261458175709, -20.92831220933296876 ) ) ;
#391 = CARTESIAN_POINT ( 'NONE',  ( 0.0000000000000000000, 7.999999999999986677, 0.0000000000000000000 ) ) ;
#392 = CARTESIAN_POINT ( 'NONE',  ( 5.265981236333616104E-15, 11.99999999999998934, 42.99999999999998579 ) ) ;
#393 = LINE ( 'NONE', #207, #87 ) ;
#394 = LINE ( 'NONE', #326, #237 ) ;
#395 = EDGE_CURVE ( 'NONE', #510, #89, #316, .T. ) ;
#396 = ORIENTED_EDGE ( 'NONE', *, *, #74, .T. ) ;
#397 = CARTESIAN_POINT ( 'NONE',  ( 5.755839955992559063E-15, 6.500000000000000888, -46.99999999999999289 ) ) ;
#398 = CIRCLE ( 'NONE', #221, 46.99999999999999289 ) ;
#399 = CARTESIAN_POINT ( 'NONE',  ( -16.68353604612736163, 6.932174689228296494, 1.694065894508600678E-18 ) ) ;
#400 =( GEOMETRIC_REPRESENTATION_CONTEXT ( 3 ) GLOBAL_UNCERTAINTY_ASSIGNED_CONTEXT ( ( #455 ) ) GLOBAL_UNIT_ASSIGNED_CONTEXT ( ( #546, #121, #470 ) ) REPRESENTATION_CONTEXT ( 'NONE', 'WORKASPACE' ) );
#401 = EDGE_CURVE ( 'NONE', #20, #508, #187, .T. ) ;
#402 = CARTESIAN_POINT ( 'NONE',  ( 12.61978561629998730, 8.733963283336818151, 25.23957123259997459 ) ) ;
#403 = ADVANCED_FACE ( 'NONE', ( #517, #335 ), #284, .T. ) ;
#404 = EDGE_LOOP ( 'NONE', ( #452, #168, #144, #519, #337 ) ) ;
#405 = ORIENTED_EDGE ( 'NONE', *, *, #461, .F. ) ;
#406 = AXIS2_PLACEMENT_3D ( 'NONE', #158, #538, #524 ) ;
#407 = CARTESIAN_POINT ( 'NONE',  ( 0.0000000000000000000, 6.500000000000000888, 0.0000000000000000000 ) ) ;
#408 = FACE_OUTER_BOUND ( 'NONE', #423, .T. ) ;
#409 = ORIENTED_EDGE ( 'NONE', *, *, #481, .F. ) ;
#410 = CARTESIAN_POINT ( 'NONE',  ( 37.86466226847206684, 3.499999999999999112, 4.635389678893478840E-15 ) ) ;
#411 = FACE_OUTER_BOUND ( 'NONE', #241, .T. ) ;
#412 = CARTESIAN_POINT ( 'NONE',  ( 0.0000000000000000000, 14.99999999999999645, 0.0000000000000000000 ) ) ;
#413 = CARTESIAN_POINT ( 'NONE',  ( 5.510910596163087978E-15, 11.99999999999998934, 42.99999999999998579 ) ) ;
#414 = AXIS2_PLACEMENT_3D ( 'NONE', #35, #547, #333 ) ;
#415 = DIRECTION ( 'NONE',  ( 0.0000000000000000000, -0.0000000000000000000, -1.000000000000000000 ) ) ;
#416 = CARTESIAN_POINT ( 'NONE',  ( -39.99999999999999289, 3.499999999999999556, 1.694065894508600678E-18 ) ) ;
#417 = CARTESIAN_POINT ( 'NONE',  ( 0.0000000000000000000, 11.49999999999999112, 0.0000000000000000000 ) ) ;
#418 = PLANE ( 'NONE',  #533 ) ;
#419 = DIRECTION ( 'NONE',  ( -0.0000000000000000000, 1.000000000000000000, -0.0000000000000000000 ) ) ;
#420 = CARTESIAN_POINT ( 'NONE',  ( -37.86466226847206684, 3.499999999999999112, -9.272473423681466281E-15 ) ) ;
#421 = ORIENTED_EDGE ( 'NONE', *, *, #70, .F. ) ;
#422 = PRODUCT_CONTEXT ( 'NONE', #464, 'mechanical' ) ;
#423 = EDGE_LOOP ( 'NONE', ( #69, #228, #189, #462 ) ) ;
#424 = AXIS2_PLACEMENT_3D ( 'NONE', #371, #235, #295 ) ;
#425 = CARTESIAN_POINT ( 'NONE',  ( 0.0000000000000000000, 11.99999999999998934, -42.99999999999998579 ) ) ;
#426 = FACE_OUTER_BOUND ( 'NONE', #476, .T. ) ;
#427 = CARTESIAN_POINT ( 'NONE',  ( -39.99999999999999289, 3.499999999999999112, 79.99999999999997158 ) ) ;
#428 = DIRECTION ( 'NONE',  ( -0.0000000000000000000, 1.000000000000000000, -0.0000000000000000000 ) ) ;
#429 = CIRCLE ( 'NONE', #214, 9.453881286938550232 ) ;
#430 = PRESENTATION_LAYER_ASSIGNMENT (  '', '', ( #143 ) ) ;
#431 = CARTESIAN_POINT ( 'NONE',  ( -33.55037370042460054, 3.653876120482262735, 1.694065894508154825E-18 ) ) ;
#432 = CARTESIAN_POINT ( 'NONE',  ( -27.36524476696547481, 4.337076222411566206, 54.73048953393092830 ) ) ;
#433 = CARTESIAN_POINT ( 'NONE',  ( 39.99999999999999289, 3.499999999999999112, 4.896893130694904425E-15 ) ) ;
#434 = CARTESIAN_POINT ( 'NONE',  ( 12.61978561629999440, 8.733963283336818151, -25.23957123259997459 ) ) ;
#435 = CIRCLE ( 'NONE', #272, 9.301738616851267238 ) ;
#436 = CARTESIAN_POINT ( 'NONE',  ( 0.0000000000000000000, 11.14084087367017339, 0.0000000000000000000 ) ) ;
#437 = ORIENTED_EDGE ( 'NONE', *, *, #395, .F. ) ;
#438 = VERTEX_POINT ( 'NONE', #234 ) ;
#439 = CARTESIAN_POINT ( 'NONE',  ( -37.86466226847206684, 3.499999999999999112, 1.694065894508600678E-18 ) ) ;
#440 = CARTESIAN_POINT ( 'NONE',  ( 0.0000000000000000000, 11.99999999999998934, 0.0000000000000000000 ) ) ;
#441 = ADVANCED_FACE ( 'NONE', ( #303 ), #287, .T. ) ;
#442 = CARTESIAN_POINT ( 'NONE',  ( 21.66415671351422390, 5.445029984783867683, 2.651399951648675570E-15 ) ) ;
#443 = PRESENTATION_LAYER_ASSIGNMENT (  '', '', ( #123 ) ) ;
#444 = EDGE_CURVE ( 'NONE', #250, #127, #179, .T. ) ;
#445 = EDGE_LOOP ( 'NONE', ( #259, #180 ) ) ;
#446 = EDGE_CURVE ( 'NONE', #289, #134, #394, .T. ) ;
#447 = CIRCLE ( 'NONE', #238, 9.801738616851267238 ) ;
#448 = TOROIDAL_SURFACE ( 'NONE', #12, 9.801738616851267238, 0.5000000000000000000 ) ;
#449 = AXIS2_PLACEMENT_3D ( 'NONE', #412, #68, #248 ) ;
#450 = DIRECTION ( 'NONE',  ( -0.0000000000000000000, 1.000000000000000000, -0.0000000000000000000 ) ) ;
#451 = ORIENTED_EDGE ( 'NONE', *, *, #453, .T. ) ;
#452 = ORIENTED_EDGE ( 'NONE', *, *, #27, .F. ) ;
#453 = EDGE_CURVE ( 'NONE', #250, #220, #506, .T. ) ;
#454 = CARTESIAN_POINT ( 'NONE',  ( 0.0000000000000000000, 11.99999999999998934, 0.0000000000000000000 ) ) ;
#455 = UNCERTAINTY_MEASURE_WITH_UNIT (LENGTH_MEASURE( 1.000000000000000082E-05 ), #546, 'distance_accuracy_value', 'NONE');
#456 = DIRECTION ( 'NONE',  ( 0.0000000000000000000, 0.0000000000000000000, 1.000000000000000000 ) ) ;
#457 = CARTESIAN_POINT ( 'NONE',  ( 1.200366782320590948E-15, 11.49999999999999112, -9.801738616851267238 ) ) ;
#458 = CARTESIAN_POINT ( 'NONE',  ( -39.99999999999999289, 3.499999999999999112, -9.795480327284315873E-15 ) ) ;
#459 =( LENGTH_UNIT ( ) NAMED_UNIT ( * ) SI_UNIT ( .MILLI., .METRE. ) );
#460 = ORIENTED_EDGE ( 'NONE', *, *, #27, .T. ) ;
#461 = EDGE_CURVE ( 'NONE', #17, #36, #550, .T. ) ;
#462 = ORIENTED_EDGE ( 'NONE', *, *, #94, .T. ) ;
#463 = CARTESIAN_POINT ( 'NONE',  ( 27.36524476696548192, 4.337076222411566206, -54.73048953393092830 ) ) ;
#464 = APPLICATION_CONTEXT ( 'automotive_design' ) ;
#465 = TOROIDAL_SURFACE ( 'NONE', #424, 9.801738616851267238, 0.5000000000000000000 ) ;
#466 = CARTESIAN_POINT ( 'NONE',  ( 21.66415671351423100, 5.445029984783868571, -43.32831342702844779 ) ) ;
#467 = CARTESIAN_POINT ( 'NONE',  ( 0.0000000000000000000, 3.499999999999999556, 44.99999999999999289 ) ) ;
#468 = CARTESIAN_POINT ( 'NONE',  ( 37.86466226847206684, 3.499999999999999112, 4.635389678893478840E-15 ) ) ;
#469 = ORIENTED_EDGE ( 'NONE', *, *, #102, .T. ) ;
#470 =( NAMED_UNIT ( * ) SI_UNIT ( $, .STERADIAN. ) SOLID_ANGLE_UNIT ( ) );
#471 = CARTESIAN_POINT ( 'NONE',  ( 33.55037370042459344, 3.653876120482262291, 67.10074740084918687 ) ) ;
#472 = CARTESIAN_POINT ( 'NONE',  ( 12.61978561629998907, 8.733963283336818151, 1.543783940198250500E-15 ) ) ;
#473 = CARTESIAN_POINT ( 'NONE',  ( 4.336808689942011820E-16, 3.499999999999999556, 0.0000000000000000000 ) ) ;
#474 = LINE ( 'NONE', #514, #245 ) ;
#475 = AXIS2_PLACEMENT_3D ( 'NONE', #294, #368, #328 ) ;
#476 = EDGE_LOOP ( 'NONE', ( #384, #551 ) ) ;
#477 =( LENGTH_UNIT ( ) NAMED_UNIT ( * ) SI_UNIT ( .MILLI., .METRE. ) );
#478 =( BOUNDED_SURFACE ( )  B_SPLINE_SURFACE ( 3, 3, ( 
 ( #92, #427, #387, #433 ),
 ( #345, #169, #211, #385 ),
 ( #431, #171, #471, #50 ),
 ( #347, #432, #215, #310 ),
 ( #52, #348, #175, #442 ),
 ( #185, #485, #276, #100 ),
 ( #271, #525, #402, #226 ),
 ( #142, #184, #229, #529 ),
 ( #531, #145, #137, #356 ),
 ( #63, #280, #480, #354 ) ),
 .UNSPECIFIED., .F., .F., .F. ) 
 B_SPLINE_SURFACE_WITH_KNOTS ( ( 4, 1, 1, 1, 1, 1, 1, 4 ),
 ( 4, 4 ),
 ( -1.570796326794896558, -1.374446785945534488, -1.178097245096172418, -0.9817477042468103487, -0.7853981633974482790, -0.5890486225480862092, -0.3926990816987241395, -0.3592145850057656964 ),
 ( 0.0000000000000000000, 1.000000000000000000 ),
 .UNSPECIFIED. ) 
 GEOMETRIC_REPRESENTATION_ITEM ( )  RATIONAL_B_SPLINE_SURFACE ( (
 ( 1.000000000000000000, 0.3333333333333334259, 0.3333333333333334259, 1.000000000000000000),
 ( 1.000000000000000000, 0.3333333333333334259, 0.3333333333333334259, 1.000000000000000000),
 ( 1.000000000000000000, 0.3333333333333334259, 0.3333333333333334259, 1.000000000000000000),
 ( 1.000000000000000000, 0.3333333333333334259, 0.3333333333333334259, 1.000000000000000000),
 ( 1.000000000000000000, 0.3333333333333334259, 0.3333333333333334259, 1.000000000000000000),
 ( 1.000000000000000000, 0.3333333333333334259, 0.3333333333333334259, 1.000000000000000000),
 ( 1.000000000000000000, 0.3333333333333334259, 0.3333333333333334259, 1.000000000000000000),
 ( 1.000000000000000000, 0.3333333333333334259, 0.3333333333333334259, 1.000000000000000000),
 ( 1.000000000000000000, 0.3333333333333334259, 0.3333333333333334259, 1.000000000000000000),
 ( 1.000000000000000000, 0.3333333333333334259, 0.3333333333333334259, 1.000000000000000000) ) ) 
 REPRESENTATION_ITEM ( '' )  SURFACE ( )  );
#479 = DIRECTION ( 'NONE',  ( 0.0000000000000000000, -1.000000000000000000, 0.0000000000000000000 ) ) ;
#480 = CARTESIAN_POINT ( 'NONE',  ( 9.453881286938548456, 11.14084087367017339, 18.90776257387709691 ) ) ;
#481 = EDGE_CURVE ( 'NONE', #127, #17, #351, .T. ) ;
#482 = CARTESIAN_POINT ( 'NONE',  ( -27.36524476696547481, 4.337076222411565318, 1.694065894508600678E-18 ) ) ;
#483 = EDGE_LOOP ( 'NONE', ( #451, #8 ) ) ;
#484 = AXIS2_PLACEMENT_3D ( 'NONE', #86, #212, #42 ) ;
#485 = CARTESIAN_POINT ( 'NONE',  ( -16.68353604612736163, 6.932174689228295605, 33.36707209225470905 ) ) ;
#486 = ADVANCED_FACE ( 'NONE', ( #135 ), #535, .T. ) ;
#487 = CARTESIAN_POINT ( 'NONE',  ( -12.61978561629998907, 8.733963283336818151, 1.694065894508600678E-18 ) ) ;
#488 = AXIS2_PLACEMENT_3D ( 'NONE', #457, #240, #109 ) ;
#489 = ADVANCED_FACE ( 'NONE', ( #194, #155 ), #173, .F. ) ;
#490 = DIRECTION ( 'NONE',  ( -0.0000000000000000000, 1.000000000000000000, -0.0000000000000000000 ) ) ;
#491 = FACE_OUTER_BOUND ( 'NONE', #350, .T. ) ;
#492 = DIRECTION ( 'NONE',  ( 0.0000000000000000000, 0.0000000000000000000, 1.000000000000000000 ) ) ;
#493 = ORIENTED_EDGE ( 'NONE', *, *, #528, .T. ) ;
#494 = DIRECTION ( 'NONE',  ( -0.0000000000000000000, 1.000000000000000000, -0.0000000000000000000 ) ) ;
#495 = CIRCLE ( 'NONE', #488, 0.5000000000000004441 ) ;
#496 = CARTESIAN_POINT ( 'NONE',  ( 0.0000000000000000000, 6.500000000000000888, 0.0000000000000000000 ) ) ;
#497 = DIRECTION ( 'NONE',  ( -1.000000000000000000, 0.0000000000000000000, 0.0000000000000000000 ) ) ;
#498 = AXIS2_PLACEMENT_3D ( 'NONE', #381, #117, #301 ) ;
#499 = CARTESIAN_POINT ( 'NONE',  ( 1.200366782320590948E-15, 11.49999999999999112, -9.801738616851267238 ) ) ;
#500 = ORIENTED_EDGE ( 'NONE', *, *, #164, .T. ) ;
#501 = ORIENTED_EDGE ( 'NONE', *, *, #188, .T. ) ;
#502 = DIRECTION ( 'NONE',  ( 0.0000000000000000000, 0.0000000000000000000, 1.000000000000000000 ) ) ;
#503 =( NAMED_UNIT ( * ) PLANE_ANGLE_UNIT ( ) SI_UNIT ( $, .RADIAN. ) );
#504 = VECTOR ( 'NONE', #278, 999.9999999999998863 ) ;
#505 = CARTESIAN_POINT ( 'NONE',  ( -21.66415671351421324, 5.445029984783868571, -43.32831342702844779 ) ) ;
#506 = CIRCLE ( 'NONE', #91, 9.801738616851267238 ) ;
#507 = DIRECTION ( 'NONE',  ( 0.0000000000000000000, 0.0000000000000000000, 1.000000000000000000 ) ) ;
#508 = VERTEX_POINT ( 'NONE', #467 ) ;
#509 = EDGE_CURVE ( 'NONE', #289, #147, #98, .T. ) ;
#510 = VERTEX_POINT ( 'NONE', #416 ) ;
#511 = CARTESIAN_POINT ( 'NONE',  ( 37.86466226847207395, 3.499999999999999112, -75.72932453694411947 ) ) ;
#512 = CIRCLE ( 'NONE', #183, 44.99999999999999289 ) ;
#513 = CARTESIAN_POINT ( 'NONE',  ( 9.453881286938552009, 11.14084087367017339, -18.90776257387709691 ) ) ;
#514 = CARTESIAN_POINT ( 'NONE',  ( 5.510910596163087978E-15, 14.99999999999999645, -44.99999999999999289 ) ) ;
#515 = CARTESIAN_POINT ( 'NONE',  ( -10.46415610466648083, 10.20414261458175709, -20.92831220933297232 ) ) ;
#516 = EDGE_CURVE ( 'NONE', #127, #438, #435, .T. ) ;
#517 = FACE_BOUND ( 'NONE', #358, .T. ) ;
#518 = DIRECTION ( 'NONE',  ( 0.0000000000000000000, 0.0000000000000000000, -1.000000000000000000 ) ) ;
#519 = ORIENTED_EDGE ( 'NONE', *, *, #139, .F. ) ;
#520 =( NAMED_UNIT ( * ) PLANE_ANGLE_UNIT ( ) SI_UNIT ( $, .RADIAN. ) );
#521 = SURFACE_STYLE_USAGE ( .BOTH. , #213 ) ;
#522 = PRODUCT_DEFINITION_SHAPE ( 'NONE', 'NONE',  #19 ) ;
#523 = AXIS2_PLACEMENT_3D ( 'NONE', #344, #162, #507 ) ;
#524 = DIRECTION ( 'NONE',  ( 0.0000000000000000000, 0.0000000000000000000, 1.000000000000000000 ) ) ;
#525 = CARTESIAN_POINT ( 'NONE',  ( -12.61978561629999263, 8.733963283336818151, 25.23957123259997459 ) ) ;
#526 = ORIENTED_EDGE ( 'NONE', *, *, #80, .T. ) ;
#527 = FACE_OUTER_BOUND ( 'NONE', #360, .T. ) ;
#528 = EDGE_CURVE ( 'NONE', #20, #85, #474, .T. ) ;
#529 = CARTESIAN_POINT ( 'NONE',  ( 10.46415610466648616, 10.20414261458175709, 1.279795462041296551E-15 ) ) ;
#530 = TOROIDAL_SURFACE ( 'NONE', #23, 9.801738616851267238, 0.5000000000000000000 ) ;
#531 = CARTESIAN_POINT ( 'NONE',  ( -9.577226244979989644, 11.02137725819437009, 1.694065894508473374E-18 ) ) ;
#532 = ORIENTED_EDGE ( 'NONE', *, *, #84, .F. ) ;
#533 = AXIS2_PLACEMENT_3D ( 'NONE', #34, #332, #415 ) ;
#534 = ORIENTED_EDGE ( 'NONE', *, *, #395, .T. ) ;
#535 = TOROIDAL_SURFACE ( 'NONE', #406, 9.801738616851267238, 0.5000000000000000000 ) ;
#536 = AXIS2_PLACEMENT_3D ( 'NONE', #201, #122, #456 ) ;
#537 = CARTESIAN_POINT ( 'NONE',  ( 21.66415671351422390, 5.445029984783867683, 2.651399951648675176E-15 ) ) ;
#538 = DIRECTION ( 'NONE',  ( -0.0000000000000000000, 1.000000000000000000, -0.0000000000000000000 ) ) ;
#539 = CIRCLE ( 'NONE', #268, 42.99999999999998579 ) ;
#540 = CARTESIAN_POINT ( 'NONE',  ( 10.46415610466712742, 10.20414261458132010, 1.279795462041374845E-15 ) ) ;
#541 = EDGE_CURVE ( 'NONE', #166, #134, #21, .T. ) ;
#542 = CARTESIAN_POINT ( 'NONE',  ( -9.453881286938550232, 11.14084087367017339, 1.694065894508475108E-18 ) ) ;
#543 =( GEOMETRIC_REPRESENTATION_CONTEXT ( 3 ) GLOBAL_UNCERTAINTY_ASSIGNED_CONTEXT ( ( #378 ) ) GLOBAL_UNIT_ASSIGNED_CONTEXT ( ( #459, #503, #47 ) ) REPRESENTATION_CONTEXT ( 'NONE', 'WORKASPACE' ) );
#544 = CARTESIAN_POINT ( 'NONE',  ( 0.0000000000000000000, 11.14084087367017339, 0.0000000000000000000 ) ) ;
#545 = CARTESIAN_POINT ( 'NONE',  ( 33.55037370042460765, 3.653876120482262291, -67.10074740084918687 ) ) ;
#546 =( LENGTH_UNIT ( ) NAMED_UNIT ( * ) SI_UNIT ( .MILLI., .METRE. ) );
#547 = DIRECTION ( 'NONE',  ( -0.0000000000000000000, 1.000000000000000000, -0.0000000000000000000 ) ) ;
#548 = CARTESIAN_POINT ( 'NONE',  ( 33.55037370042460054, 3.653876120482262735, 4.107041710347743557E-15 ) ) ;
#549 = ORIENTED_EDGE ( 'NONE', *, *, #461, .T. ) ;
#550 = CIRCLE ( 'NONE', #177, 9.453881286938550232 ) ;
#551 = ORIENTED_EDGE ( 'NONE', *, *, #299, .T. ) ;
#552 = CARTESIAN_POINT ( 'NONE',  ( -33.55037370042460054, 3.653876120482262735, -8.215777486589995714E-15 ) ) ;
#553 = CARTESIAN_POINT ( 'NONE',  ( 5.755839955992559063E-15, 7.999999999999986677, -46.99999999999999289 ) ) ;
#554 = EDGE_CURVE ( 'NONE', #508, #37, #393, .T. ) ;
ENDSEC;
END-ISO-10303-21;
